^C:\USERS\CYPRIAN\SOURCE\REPOS\DIRECTX11_GAME\DIRECTX11_GAME\DIRECTX11_GAME\RELEASE\MAIN.OBJ
/OUT:"C:\USERS\CYPRIAN\SOURCE\REPOS\DIRECTX11_GAME\DIRECTX11_GAME\RELEASE\DIRECTX11_GAME.EXE" /NOLOGO KERNEL32.LIB USER32.LIB GDI32.LIB WINSPOOL.LIB COMDLG32.LIB ADVAPI32.LIB SHELL32.LIB OLE32.LIB OLEAUT32.LIB UUID.LIB ODBC32.LIB ODBCCP32.LIB /MANIFEST /MANIFESTUAC:"level='asInvoker' uiAccess='false'" /manifest:embed /DEBUG /PDB:"C:\USERS\CYPRIAN\SOURCE\REPOS\DIRECTX11_GAME\DIRECTX11_GAME\RELEASE\DIRECTX11_GAME.PDB" /OPT:REF /OPT:ICF /LTCG:incremental /TLBID:1 /DYNAMICBASE /NXCOMPAT /IMPLIB:"C:\USERS\CYPRIAN\SOURCE\REPOS\DIRECTX11_GAME\DIRECTX11_GAME\RELEASE\DIRECTX11_GAME.LIB" /MACHINE:X86 /SAFESEH RELEASE\MAIN.OBJ
^C:\USERS\CYPRIAN\SOURCE\REPOS\DIRECTX11_GAME\DIRECTX11_GAME\DIRECTX11_GAME\RELEASE\DIRECTX_CLASS.OBJ|C:\USERS\CYPRIAN\SOURCE\REPOS\DIRECTX11_GAME\DIRECTX11_GAME\DIRECTX11_GAME\RELEASE\DIRECTX_SHADERCLASS.OBJ|C:\USERS\CYPRIAN\SOURCE\REPOS\DIRECTX11_GAME\DIRECTX11_GAME\DIRECTX11_GAME\RELEASE\DIRECT_INPUT.OBJ|C:\USERS\CYPRIAN\SOURCE\REPOS\DIRECTX11_GAME\DIRECTX11_GAME\DIRECTX11_GAME\RELEASE\MAIN.OBJ|C:\USERS\CYPRIAN\SOURCE\REPOS\DIRECTX11_GAME\DIRECTX11_GAME\DIRECTX11_GAME\RELEASE\MATERIAL.OBJ|C:\USERS\CYPRIAN\SOURCE\REPOS\DIRECTX11_GAME\DIRECTX11_GAME\DIRECTX11_GAME\RELEASE\OBJECT_3D.OBJ|C:\USERS\CYPRIAN\SOURCE\REPOS\DIRECTX11_GAME\DIRECTX11_GAME\DIRECTX11_GAME\RELEASE\WINDOW.OBJ
/OUT:"C:\USERS\CYPRIAN\SOURCE\REPOS\DIRECTX11_GAME\DIRECTX11_GAME\RELEASE\DIRECTX11_GAME.EXE" /NOLOGO KERNEL32.LIB USER32.LIB GDI32.LIB WINSPOOL.LIB COMDLG32.LIB ADVAPI32.LIB SHELL32.LIB OLE32.LIB OLEAUT32.LIB UUID.LIB ODBC32.LIB ODBCCP32.LIB /MANIFEST /MANIFESTUAC:"level='asInvoker' uiAccess='false'" /manifest:embed /DEBUG /PDB:"C:\USERS\CYPRIAN\SOURCE\REPOS\DIRECTX11_GAME\DIRECTX11_GAME\RELEASE\DIRECTX11_GAME.PDB" /OPT:REF /OPT:ICF /LTCG:incremental /TLBID:1 /DYNAMICBASE /NXCOMPAT /IMPLIB:"C:\USERS\CYPRIAN\SOURCE\REPOS\DIRECTX11_GAME\DIRECTX11_GAME\RELEASE\DIRECTX11_GAME.LIB" /MACHINE:X86 /SAFESEH RELEASE\DIRECTX_CLASS.OBJRELEASE\DIRECTX_SHADERCLASS.OBJRELEASE\DIRECT_INPUT.OBJRELEASE\MAIN.OBJRELEASE\MATERIAL.OBJRELEASE\OBJECT_3D.OBJRELEASE\WINDOW.OBJ
